[
  {
    "name": "Heart of Code",
    "city": "Berlin",
    "coords": [13.428897740070227, 52.500024896503135],
    "img": "/markers/marker-hoc.png",
    "contacts": [
      {
        "title": "Website der Heart of Code",
        "url": "https://heartofcode.org",
        "value": "//heartofcode.org"
      },
      {
        "title": "Heart of Code bei Twitter",
        "url": "https://twitter.com/heartofcode",
        "value": "@heartofcode"
      }
    ]
  },
  {
    "name": "Binary Bugs",
    "city": "Jena",
    "coords": [11.58639, 50.92722],
    "img": "/markers/marker-bb.png",
    "contacts": [
      {
        "title": "Website der Binary Bugs",
        "url": "https://binarybugs.org/",
        "value": "//binarybugs.org"
      },
      {
        "title": "Binary Bugs bei Twitter",
        "url": "https://twitter.com/binarybugs",
        "value": "@binarybugs"
      },
      {
        "title": "Binary Bugs bei Mastodon",
        "url": "https://mastodon.social/@binarybugs",
        "value": "@binarybugs@mastodon.social"
      }
    ]
  },
  {
    "name": "Megahertz",
    "city": "Hannover",
    "coords": [9.73861, 52.37444],
    "img": "/markers/marker-megahertz.png",
    "contacts": [
      {
        "title": "Website von Megahertz",
        "url": "https://megahertz-hannover.org/",
        "value": "//megahertz-hannover.org"
      }
    ]
  },
  {
    "name": "f.u.c.k. cologne",
    "city": "Köln",
    "coords": [6.95778, 50.94222],
    "img": "/markers/marker-cologne.png",
    "contacts": [
      {
        "title": "f.u.c.k. cologne bei Twitter",
        "url": "https://twitter.com/fuck_cologne",
        "value": "@fuck_cologne"
      }
    ]
  },
  {
    "name": "F.U.C.K. Bochum",
    "city": "Bochum",
    "coords": [7.210732, 51.493555],
    "img": "/markers/marker-fuck.png",
    "contacts": [
      {
        "title": "Website von F.U.C.K. Bochum",
        "url": "https://www.space-left.org/about/fuck/",
        "value": "//space-left.org/about/fuck"
      }
    ]
  },
  {
    "name": "f.u.c.k. hh",
    "city": "Hamburg",
    "coords": [10, 53.55],
    "img": "/markers/marker-fuck.png",
    "contacts": [
      {
        "title": "f.u.c.k. hh bei Twitter",
        "url": "https://twitter.com/f_u_c_k_hh",
        "value": "@f_u_c_k_hh"
      }
    ]
  },
  {
    "name": "F.U.C.K. Vienna",
    "city": "Wien",
    "coords": [16.37306, 48.20833],
    "img": "/markers/marker-fuck.png",
    "contacts": [
      {
        "title": "F.U.C.K. Vienna bei Twitter",
        "url": "https://twitter.com/fuck_wien",
        "value": "@fuck_wien"
      }
    ]
  },
  {
    "name": "f.u.c.k. muc",
    "city": "München",
    "coords": [11.56667, 48.13333],
    "img": "/markers/marker-muc.png",
    "contacts": [
      {
        "title": "f.u.c.k. muc bei Twitter",
        "url": "https://twitter.com/fuck_muc",
        "value": "@fuck_muc"
      }
    ]
  },
  {
    "name": "f.u.c.k. Bonn",
    "city": "Bonn",
    "coords": [7.09972, 50.73389],
    "img": "/markers/marker-fuck.png",
    "contacts": [
      {
        "title": "f.u.c.k. Bonn bei Twitter",
        "url": "https://twitter.com/f_u_c_k_bonn",
        "value": "@f_u_c_k_bonn"
      }
    ]
  }
]
